{
  "name": "expensify",
  "version": "1.0.0",
  "main": "index.js",
  "author": "idrisf",
  "license": "MIT",
  "scripts": {
    "serve": "live-server public/",
    "build": "webpack",
    "dev-server": "webpack-dev-server",
    "test": "jest --config=jest.config.json"
  },
  "dependencies": {
    "babel-cli": "^6.26.0",
    "babel-core": "^6.26.0",
    "babel-loader": "^7.1.4",
    "babel-plugin-transform-class-properties": "^6.24.1",
    "babel-plugin-transform-object-rest-spread": "^6.26.0",
    "babel-preset-env": "^1.6.1",
    "babel-preset-react": "^6.24.1",
    "css-loader": "^0.28.11",
    "enzyme": "^3.3.0",
    "enzyme-adapter-react-16": "^1.1.1",
    "enzyme-to-json": "^3.3.4",
    "install": "^0.11.0",
    "live-server": "^1.2.0",
    "moment": "^2.22.2",
    "node-sass": "^4.8.3",
    "normalize.css": "^8.0.0",
    "npm": "^6.1.0",
    "raf": "^3.4.0",
    "react": "^16.3.1",
    "react-addons-shallow-compare": "^15.6.2",
    "react-dates": "^16.7.0",
    "react-dom": "^16.3.1",
    "react-modal": "^3.4.1",
    "react-redux": "^5.0.7",
    "react-router-dom": "^4.2.2",
    "react-test-renderer": "^16.4.1",
    "redux": "^4.0.0",
    "sass-loader": "^7.0.1",
    "style-loader": "^0.20.3",
    "uuid": "^3.2.1",
    "validator": "^9.4.1",
    "webpack": "^4.5.0",
    "webpack-dev-server": "^3.1.3"
  },
  "devDependencies": {
    "jest": "^23.1.0",
    "webpack-cli": "^2.0.14"
  }
}
